{
    "entries": [
        {
            "output": "dist/less/jorb.less",
            "append": false,
            "paths": [
                "src/less/theme-variables.less",
                "src/less/theme-mixins.less",
                "src/less/variables.less",
                "src/less/jorb-variables.less",
                "src/less/jorb-html.less"
            ]
        },
        {
            "output": "dist/less/jorb.less",
            "append": true,
            "wrap-selector": ".jorb",
            "paths": [
                "src/less/theme-style.less",
                "src/less/jorb.less",
                "src/less/flex.less",
                "src/less/components/"
            ]
        }
    ]
}
